1 10 20
10 1 20
100 200 125
201 210 89
900 1000 174
1 1 1
10 20 21
1 1000 179
6 6 9
7 7 17
10 100 119
50 60 113
500 501 111
579 3890 238
4721 3622 238
5055 5458 192
1775 4320 238
3954 1123 238
2256 6884 262
1196 3065 217
733 3985 238
6151 719 238
676 3932 238
5631 526 238
4093 3949 189
6343 5842 262
457 5901 238
1255 1113 182
6464 6155 262
2592 331 209
1653 908 182
4226 4852 215
2064 172 182
367 2995 217
1191 6528 262
1321 1570 172
2062 985 182
1772 1945 175
3128 4060 238
3160 1708 217
1788 3241 217
1234 6341 262
234 762 171
4599 4598 153
1171 5630 238
2130 4875 238
4698 410 238
5382 5335 192
5642 2579 238
2596 5460 238
6081 3054 238
4690 1800 238
2206 4007 238
5387 1641 238
1491 5889 238
2397 3129 217
2193 6982 262
3573 6279 262
5544 203 238
961 4172 238
4039 6458 262
8325 9244 247
7657 9360 260
8541 9262 260
8646 9757 260
8141 9152 247
8045 9518 260
7773 9947 260
8877 9788 260
7876 9433 260
7634 9608 260
7479 9238 252
8435 9366 260
8975 9745 260
7731 9433 260
8429 9568 260
7027 9033 252
8752 9221 247
8096 9037 247
7083 9106 252
7533 9030 252
1874 2394 183
473 95 144
915 2358 183
2256 153 183
1415 791 182
2122 482 182
771 135 171
2011 2320 183
1688 1804 180
1862 2393 183
307 860 171
2053 1894 175
1713 2077 180
531 2120 182
194 1076 179
1851 1094 182
1521 2228 183
1739 1146 182
2078 1994 157
1962 750 182
1148 1220 182
600 334 142
1262 2253 183
1470 1955 180
2215 2328 183
4 165 122
1535 861 182
1180 1660 177
1056 2083 182
286 2101 182
671 1852 182
1533 675 182
1867 2307 183
911 2114 182
1875 510 182
514 1516 182
1934 1470 180
103 593 144
482 2201 182
740 1126 179
1625 1063 182
689 113 145
959 1936 182
2051 196 182
927 638 179
972 376 179
2463 2094 209
967 1803 182
598 498 137
1821 2181 175
1258 1898 180
871 2269 183
2164 1051 182
297 2277 183
605 15 144
2014 2362 183
1318 1491 172
1701 153 182
345 1114 179
119 777 171
298 2045 182
272 1797 182
1189 1961 180
1754 1892 175
2001 2184 170
944 1510 182
1319 15 182
1107 2438 183
13 1235 182
2012 2282 183
2367 860 183
2270 1159 183
2336 2498 209
1969 829 182
1337 610 182
840 1492 182
1757 2432 183
2220 1281 180
457 1222 182
1332 1013 182
2136 2337 183
1332 555 182
804 43 171
1119 2223 183
2424 2010 183
524 2305 183
384 124 144
229 2109 182
1590 961 182
1056 1473 182
557 1976 182
1256 768 182
459 1782 182
300 992 179
763 1767 182
2181 2280 183
1597 456 182
450 2097 182
1740 1228 180
506 1445 182
580 752 171
1829 99 182
2315 1895 183
99 2470 209
1265 2147 180
1374 584 182
2443 1559 183
597 792 171
958 1574 182
1636 1218 177
420 340 134
108 2240 183
2311 93 183
1901 366 182
1571 1817 180
150 1471 182
605293 606510 341
956739 956006 352
826611 825983 313
756134 756776 362
478642 479101 338
815892 815933 269
719220 719135 274
929349 929040 339
948351 948681 326
491808 491202 320
504516 507852 382
604712 604712 67
436809 436182 325
630804 630542 310
975948 975688 334
945718 945752 202
747700 747747 243
652581 653137 336
824003 823974 238
655077 655161 186
567537 567893 346
851101 851038 238
524621 524569 302
549210 549073 240
782205 782263 287
422252 422691 325
285142 285524 376
478472 479285 338
485461 484957 320
748121 748121 256
823874 824088 238
359661 358904 317
388654 388444 299
981428 981459 184
830977 832487 419
654572 654612 248
240125 241624 368
532347 536933 377
545105 545167 209
850670 851113 357
978562 976960 383
319662 322868 371
560495 559981 359
831101 831011 251
784445 782843 331
859271 859331 295
998394 998498 277
975465 975228 228
687538 680880 398
786313 786051 269
780568 780732 300
363174 361163 361
261481 261858 288
908012 909802 370
984442 984350 246
931890 931544 277
788836 791387 406
919454 919499 202
575642 575716 297
915504 916839 339
285788 285880 252
919365 918704 339
827554 827930 313
850429 850334 313
737959 737960 150
809210 810518 406
974713 974143 321
456486 455019 338
727712 727631 287
743706 745566 318
465147 463724 338
945152 944673 352
776248 775948 331
541191 542743 364
256518 255672 332
947523 950576 383
423648 421688 356
574485 575669 328
588113 587943 266
748123 748033 318
930036 929896 264
982165 982843 383
806280 806281 70
379341 379868 361
155281 158691 383
854261 855194 357
827665 827456 419
806029 805322 375
276791 280194 389
655238 655329 292
358577 358839 348
842747 844169 388
612687 612358 297
810273 809602 344
431700 431055 312
281758 283365 358
984263 984008 352
884741 885879 370
724852 724070 362
869222 869573 388
